<?xml version="1.0" encoding="utf-8"?>
<!-- Generator: Adobe Illustrator 18.1.1, SVG Export Plug-In . SVG Version: 6.00 Build 0)  -->
<svg version="1.1" id="Layer_1" xmlns="http://www.w3.org/2000/svg" xmlns:xlink="http://www.w3.org/1999/xlink" x="0px" y="0px"
	 viewBox="0 0 20 20" enable-background="new 0 0 20 20" xml:space="preserve">
<g>
	<path fill="#FFCB3C" d="M16.1,6.2V3.9c0-1.4-1.1-2.6-2.6-2.6H6.5C5,1.3,3.9,2.5,3.9,3.9v2.2H1.1C0.5,6.2,0,6.7,0,7.3v2.5
		c0,0.6,0.5,1.1,1.1,1.1h0.3l1.2,6.8c0.1,0.5,0.6,0.9,1.1,0.9h12.3c0.5,0,1-0.4,1.1-0.9l1.2-6.8h0.3c0.6,0,1.1-0.5,1.1-1.1V7.3
		c0-0.6-0.5-1.1-1.1-1.1L16.1,6.2L16.1,6.2z M6,3.9c0-0.3,0.2-0.5,0.5-0.5h7.1c0.3,0,0.5,0.2,0.5,0.5v2.2H6V3.9z M7.5,14.6
		c0,0.4-0.3,0.8-0.8,0.8c-0.4,0-0.8-0.4-0.8-0.8v-4.3c0-0.4,0.3-0.8,0.8-0.8c0.4,0,0.8,0.4,0.8,0.8V14.6z M10.8,14.6
		c0,0.4-0.3,0.8-0.8,0.8c-0.4,0-0.8-0.4-0.8-0.8v-4.3c0-0.4,0.4-0.8,0.8-0.8c0.4,0,0.8,0.4,0.8,0.8V14.6z M14.1,14.6
		c0,0.4-0.3,0.8-0.8,0.8c-0.4,0-0.8-0.4-0.8-0.8v-4.3c0-0.4,0.3-0.8,0.8-0.8c0.4,0,0.8,0.4,0.8,0.8V14.6z"/>
</g>
</svg>
