<?xml version="1.0" encoding="utf-8"?>
<!-- Generator: Adobe Illustrator 18.1.1, SVG Export Plug-In . SVG Version: 6.00 Build 0)  -->
<svg version="1.1" id="Layer_1" xmlns="http://www.w3.org/2000/svg" xmlns:xlink="http://www.w3.org/1999/xlink" x="0px" y="0px"
	 viewBox="-5 -5 30 30" enable-background="new -5 -5 30 30" xml:space="preserve">
<path fill="#FFCC3B" d="M10-5C1.8-5-5,1.8-5,10s6.8,15,15,15s15-6.8,15-15S18.2-5,10-5z M18.5,17.2L17.8,18l0,0
	c-0.3,0.3-0.8,0.5-1.2,0.6c-0.4,0.2-0.7,0.3-1.2,0.3c-0.2,0-4.4,0.5-9.6-4.8C2,10.3,0.7,7.6,1,4.4C1,4,1.1,3.7,1.3,3.2
	S1.7,2.5,1.9,2l0,0l0.8-0.8c0.6-0.6,1.5-0.6,2.1,0L7.4,4C8,4.6,8,5.5,7.4,6.1L7.2,6.7L6.1,7.6c0,0.2,0.1,0.2,0.1,0.3
	c0.5,0.9,1.2,2.1,2.4,3.3s2.4,2,3.3,2.4c0.1,0,0.1,0.2,0.3,0.2l1.3-1.3c0.6-0.6,1.5-0.6,2.1,0l2.7,2.7
	C19.2,15.7,19.2,16.6,18.5,17.2z"/>
</svg>
