<?xml version="1.0" encoding="utf-8"?>
<!-- Generator: Adobe Illustrator 18.1.1, SVG Export Plug-In . SVG Version: 6.00 Build 0)  -->
<svg version="1.1" id="Layer_1" xmlns="http://www.w3.org/2000/svg" xmlns:xlink="http://www.w3.org/1999/xlink" x="0px" y="0px"
	 viewBox="0 0 20 20" enable-background="new 0 0 20 20" xml:space="preserve">
<path fill="#6F6F70" d="M10,0C4.5,0,0,4.5,0,10s4.5,10,10,10s10-4.5,10-10S15.5,0,10,0z M5.7,5.6c0.4-0.5,1.1-0.7,1.8-0.7
	c1.6,0,2.4,1.2,2.4,2.4c0,0.6-0.2,1.2-0.6,1.6C8.9,9.3,8.2,9.6,7.5,9.6c-1.6,0-2.4-1.2-2.4-2.4C5.1,6.6,5.3,6,5.7,5.6z M7.2,14.1
	c-0.1,0.1-0.3,0.2-0.4,0.2h-1c-0.1,0-0.2-0.1-0.1-0.2L12.9,6c0.1-0.1,0.3-0.2,0.4-0.2l1,0c0.1,0,0.2,0.1,0.1,0.2L7.2,14.1z
	 M14.3,14.4c-0.4,0.5-1.1,0.7-1.8,0.7c-1.6,0-2.4-1.2-2.4-2.3c0-0.6,0.2-1.2,0.6-1.6c0.4-0.5,1.1-0.7,1.8-0.7c1.6,0,2.4,1.2,2.4,2.3
	C14.9,13.4,14.7,14,14.3,14.4z"/>
</svg>
